[
  "root",
  {},
  [
    [
      "child1",
      {"counter":  1},
      ["value1"]
    ],
    [
      "child1",
      {"counter":  2},
      ["value1"]
    ],
    [
      "child1",
      {"counter":  3},
      ["value1"]
    ],
    [
      "child3",
      {"attr1":  8},
      ["value3"]
    ]
  ]
]
